<svg
            xmlns="http://www.w3.org/2000/svg"
            width="18"
            height="18"
            viewBox="0 0 18 18"
            fill="none"
          >
            <path
              d="M9.00006 17C13.4183 17 17.0001 13.4183 17.0001 9C17.0001 4.58172 13.4183 1 9.00006 1C4.58178 1 1.00006 4.58172 1.00006 9C1.00006 13.4183 4.58178 17 9.00006 17Z"
              stroke="#5948AD"
              stroke-linecap="round"
              stroke-linejoin="round"
            />
            <path
              d="M9.00006 12.2V9"
              stroke="#5948AD"
              stroke-linecap="round"
              stroke-linejoin="round"
            />
            <path
              d="M9.00006 5.7998H9.00806"
              stroke="#5948AD"
              stroke-linecap="round"
              stroke-linejoin="round"
            />
          </svg>